"An effective remedy exists
The applicant did everything reasonably expected to exhaust all domestic remedies
The applicant did not complain in substance
So a domestic remedy exists that has not been used
So the application is inadmissible
Therefore recommended not to submit application","false,true,true,false,true,false,false,true,false,true,true,false"
"An effective remedy exists
The applicant did not do everything reasonably expected to exhaust all domestic remedies
The applicant complained in substance
So a domestic remedy exists that has not been used
So the application is inadmissible
Therefore recommended not to submit application","false,true,true,false,true,false,false,true,false,true,false,true,false"
"The alleged violation was committed by a contracted state
The complaint relates to an article enshrined in one of the protocols to the convention
The state has not ratified the protocol
So the application is not 'ratione personae'
So the application is not admissible by the courts jurisdiction
So the application is inadmissible
Therefore recommended not to submit application","false,true,true,false,true,false,false,true,false,false,false,false,false,true,true,false,false,false,false,false,false,false,false,true,true,true,false"
"The alleged violation was not committed by a contracted state
The complaint relates to an article enshrined in one of the protocols to the convention
The state has ratified the protocol
So the application is not 'ratione personae'
So the application is not admissible by the courts jurisdiction
So the application is inadmissible
Therefore recommended not to submit application","false,true,true,false,true,false,false,true,false,false,false,false,false,true,true,false,false,false,false,false,false,false,false,false"
"The applicant continually lodges similar ill-founded applications
So the application is devoid of any real purpose
So the right of application was abused
So the application is inadmissible
Therefore recommended not to submit application","false,true,true,false,true,false,false,true,false,false,false,false,false,true,true,false,false,false,false,false,false,false,true"
"The applicant does not have legal representation
The application form was not signed by the legal representative
The application form was not signed by the applicant
The power of attorney was not signed by all on page 3
The legal representative has not filled out and signed the application (page 4 of the applications form)
The legal representative has not signed the application (page 13 of the applications form)
The duly authorised director or official has not signed the application form on page 13
The duly authorised director or official did not fill out and signed page 4 of the application form
So not all signatures have been provided
So the application does not comply with rule 47
Therefore recommended not to submit application","false,true,false"
"The applicant does not have legal representation
The application form was not signed by the legal representative
The application form was not signed by the applicant
The power of attorney was not signed by all on page 3
The legal representative has not filled out and signed the application (page 4 of the applications form)
The legal representative has not signed the application (page 13 of the applications form)
The duly authorised director or official has not signed the application form on page 13
The duly authorised director or official filled out and signed page 4 of the application form
So not all signatures have been provided
So the application does not comply with rule 47
Therefore recommended not to submit application","false,true,true,false,false"
"The applicant has identified the state on p2
The appropriate box on p2 has not been ticked
So the application does not comply with rule 47
Therefore recommended not to submit application","false,true,true,false,true,false,false,true,false,false,false,false,false,true,true,false,false,false,false,false,false,false,false,true,true,false,false,false,true,false"
"The applicant has legal representation
The application form was not signed by the legal representative
The application form was not signed by the applicant
The power of attorney was not signed by all on page 3
The legal representative has filled out and signed the application (page 4 of the applications form)
The legal representative has not signed the application (page 13 of the applications form)
The duly authorised director or official has not signed the application form on page 13
The duly authorised director or official filled out and signed page 4 of the application form
So not all signatures have been provided
So the application does not comply with rule 47
Therefore recommended not to submit application","false,true,true,true,true,false,false"
"The applicant has legal representation
The application form was not signed by the legal representative
The application form was not signed by the applicant
The power of attorney was not signed by all on page 3
The legal representative has not filled out and signed the application (page 4 of the applications form)
The legal representative has not signed the application (page 13 of the applications form)
The duly authorised director or official has not signed the application form on page 13
The duly authorised director or official did not fill out and signed page 4 of the application form
So not all signatures have been provided
So the application does not comply with rule 47
Therefore recommended not to submit application","true,true,false,false,false"
"The applicant has legal representation
The application form was not signed by the legal representative
The application form was not signed by the applicant
The power of attorney was not signed by all on page 3
The legal representative has not filled out and signed the application (page 4 of the applications form)
The legal representative has not signed the application (page 13 of the applications form)
The duly authorised director or official has not signed the application form on page 13
The duly authorised director or official filled out and signed page 4 of the application form
So not all signatures have been provided
So the application does not comply with rule 47
Therefore recommended not to submit application","false,true,true,true,false"
"The applicant has legal representation
The application form was not signed by the legal representative
The application form was not signed by the applicant
The power of attorney was signed by all on page 3
The legal representative has not filled out and signed the application (page 4 of the applications form)
The legal representative has not signed the application (page 13 of the applications form)
The duly authorised director or official has not signed the application form on page 13
The duly authorised director or official did not fill out and signed page 4 of the application form
So not all signatures have been provided
So the application does not comply with rule 47
Therefore recommended not to submit application","true,true,true,false,false"
"The applicant has legal representation
The application form was signed on page 13 by the legal representative
The application form was not signed by the applicant
The power of attorney was not signed by all on page 3
The legal representative has not filled out and signed the application (page 4 of the applications form)
The legal representative has not signed the application (page 13 of the applications form)
The duly authorised director or official has not signed the application form on page 13
The duly authorised director or official did not fill out and signed page 4 of the application form
So not all signatures have been provided
So the application does not comply with rule 47
Therefore recommended not to submit application","true,true,false,true"
"The applicant has not identified the state on p2
The appropriate box on p2 has been ticked
So the application does not comply with rule 47
Therefore recommended not to submit application","false,true,true,false,true,false,false,true,false,false,false,false,false,true,true,false,false,false,false,false,false,false,false,true,false"
"The applicant is a direct victim
The applicant is not a indirect victim
The applicant has lost victim status though redress
The applicant is not a potential victim of a violation
So the applicant does not have victim status
So the application is inadmissible
Therefore recommended not to submit application","false,true,true,false,true,true,true"
"The applicant is not a direct victim
The applicant is a indirect victim
The applicant has lost victim status though redress
The applicant is not a potential victim of a violation
So the applicant does not have victim status
So the application is inadmissible
Therefore recommended not to submit application","false,true,true,false,true,false,true,true"
"The applicant is not a direct victim
The applicant is not a indirect victim
The applicant has lost victim status though redress
The applicant is a potential victim of a violation
So the applicant does not have victim status
So the application is inadmissible
Therefore recommended not to submit application","false,true,true,false,true,false,false,true,true"
"The applicant is not a direct victim
The applicant is not a indirect victim
The applicant has not lost victim status through redress
The applicant is not a potential victim of a violation
So the applicant does not have victim status
So the application is inadmissible
Therefore recommended not to submit application","false,true,true,false,true,false,false,false"
"The applicant is not identifiable
So the application is anonymous
So the application is inadmissible
Therefore recommended not to submit application","false,true,true,false,true,false,false,true,false,false,false,false,false,true,false"
"The applicant states the violation is continuing
There are effective remedies in your case on the national level
Complaint submitted within 6 months from the moment when the violation took place
So the violation does not meet the requirements to be a continuing violation
So applicant did not comply with the 6-month time limit
So the application is inadmissible
Therefore recommended not to submit application","false,true,true,false,true,false,false,true,false,false,false,true,true"
"The applicant states the violation is not continuing
There are effective remedies in your case on the national level
Complaint submitted within 6 months from the moment when the violation took place
So the violation does not meet the requirements to be a continuing violation
So applicant did not comply with the 6-month time limit
So the application is inadmissible
Therefore recommended not to submit application","false,true,true,false,true,false,false,true,false,false,false,true,false"
"The applicant states the violation is not continuing
There are not any effective remedies in your case on the national level
Complaint not submitted within 6 months from the moment when the violation took place
So the violation does not meet the requirements to be a continuing violation
So applicant did not comply with the 6-month time limit
So the application is inadmissible
Therefore recommended not to submit application","false,true,true,false,true,false,false,true,false,false,false,false,false,false"
"The applicant states they are not a person or group
The applicant states they are not a legal entity
So the applicant is not a valid petitioner
So the application is inadmissible
Therefore recommended not to submit application","false,false"
"The application is within the scope of the court
All facts in the case are possible
So the merits of the case are not admissible
So the application is inadmissible
Therefore recommended not to submit application","false,true,true,false,true,false,false,true,false,false,false,false,false,true,true,false,false,false,false,false,false,false,false,true,true,false,false,false,false,true,false,false,false"
"The application is within the scope of the court
There are facts in the case that are impossible
So the merits of the case are not admissible
So the application is inadmissible
Therefore recommended not to submit application","false,true,true,false,true,false,false,true,false,false,false,false,false,true,true,false,false,false,false,false,false,false,false,true,true,false,false,false,false,true,false,true"
"The application relies on the same facts as another case
The application involves the same complaint as another case
The application is similar to another case and has no new facts to consider
So the case is significantly similar to another case that has been submitted to the echr
So the application is not substantially different
So the application is inadmissible
Therefore recommended not to submit application","false,true,true,false,true,false,false,true,false,false,false,false,false,true,true,true,true,false"
"The application relies on the same set of facts as another case
The application involves the persons as another case
The application relies on the same complaints as another case
So the application has been submitted to another international body
So the application is not substantially different
So the application is inadmissible
Therefore recommended not to submit application","false,true,true,false,true,false,false,true,false,false,false,false,false,true,true,false,true,true,true"
"The application was not submitted under a false identity
The application had falsified documents
The court was not misled by the applicant
The applicant stated all information
So the application was misleading
So the right of application was abused
So the application is inadmissible
Therefore recommended not to submit application","false,true,true,false,true,false,false,true,false,false,false,false,false,true,true,false,false,false,true"
"The application was not submitted under a false identity
The application had no falsified documents
The court was misled by the applicant
The applicant stated all information
So the application was misleading
So the right of application was abused
So the application is inadmissible
Therefore recommended not to submit application","false,true,true,false,true,false,false,true,false,false,false,false,false,true,true,false,false,false,false,true"
"The application was not submitted under a false identity
The application had no falsified documents
The court was not misled by the applicant
There is new and important information that was not disclosed by the applicant
So the application was misleading
So the right of application was abused
So the application is inadmissible
Therefore recommended not to submit application","false,true,true,false,true,false,false,true,false,false,false,false,false,true,true,false,false,false,false,false,true"
"The application was submitted under a false identity
The application had no falsified documents
The court was not misled by the applicant
The applicant stated all information
So the application was misleading
So the right of application was abused
So the application is inadmissible
Therefore recommended not to submit application","false,true,true,false,true,false,false,true,false,false,false,false,false,true,true,false,false,true"
"The court has not found violations in cases similar to your case
The case does not pose a new or unusual question before the Court
So the case is not new and unusual and no similar cases have found a violation
So the merits of the case are not admissible
So the application is inadmissible
Therefore recommended not to submit application","false,true,true,false,true,false,false,true,false,false,false,false,false,true,true,false,false,false,false,false,false,false,false,true,true,false,false,false,false,true,false,false,true,false,false"
"The key matter of the complaint is that the national court did not assess the evidence properly
The assessment of the evidence by the national Court was grossly inadequate
No proof exists that the assessment was grossly inadequate
So the application is outside the scope of the court
So the merits of the case are not admissible
So the application is inadmissible
Therefore recommended not to submit application","false,true,true,false,true,false,false,true,false,false,false,false,false,true,true,false,false,false,false,false,false,false,false,true,true,false,false,false,false,true,true,true,false"
"The key matter of the complaint is that the national court did not assess the evidence properly
The assessment of the evidence by the national Court was not grossly inadequate
No proof exists that the assessment was grossly inadequate
So the application is outside the scope of the court
So the merits of the case are not admissible
So the application is inadmissible
Therefore recommended not to submit application","false,true,true,false,true,false,false,true,false,false,false,false,false,true,true,false,false,false,false,false,false,false,false,true,true,false,false,false,false,true,true,false"
"The violation did not occur within the jurisdiction of the state
The violation did not occur within the territory of the state
The violation was not caused by a diplomatic/consular representative
The violation did not occur on board an aircraft/vessels registered/flying the flag of the territory
So the application is not 'ratione loci'
So the application is not admissible by the courts jurisdiction
So the application is inadmissible
Therefore recommended not to submit application","false,true,true,false,true,false,false,true,false,false,false,false,false,true,true,false,false,false,false,false,false,false,false,true,true,false,false,false,false,false"
"There are not copies of documents/decisions showing that the applicant has exhausted domestic remedies and complied with 6-months rule
There are not valid reasons for which you could not exhaust domestic remedies
So proof of domestic remedy exhaustion has not been attached
So the merits of the case are not admissible
So the application is inadmissible
Therefore recommended not to submit application","false,true,true,false,true,false,false,true,false,false,false,false,false,true,true,false,false,false,false,false,false,false,false,true,true,false,false,false,false,true,false,false,true,false,true,true,true,false,false"
"There is a concise and legible statement of the alleged violation with the relevant arguments
Not all copies of documents that relate to the decisions/measures complained of have been attached and listed on p12
So some documentation still needs to be attached
So the application does not comply with rule 47
Therefore recommended not to submit application","false,true,true,false,true,false,false,true,false,false,false,false,false,true,true,false,false,false,false,false,false,false,false,true,true,false,false,false,false,true,false,false,true,false,true,true,false"
"There is not a concise and legible statement of the alleged violation with the relevant arguments
Attached copies of documents that relate to the decisions/measures complained of and listed on p12
So some documentation still needs to be attached
So the application does not comply with rule 47
Therefore recommended not to submit application","false,true,true,false,true,false,false,true,false,false,false,false,false,true,true,false,false,false,false,false,false,false,false,true,true,false,false,false,false,true,false,false,true,false,true,false"
"There was offensive language used by the applicant
The offensive language was outside the bounds of normal and civil and legitimate criticism
So excessive offensive language was used by the applicant
So the right of application was abused
So the application is inadmissible
Therefore recommended not to submit application","false,true,true,false,true,false,false,true,false,false,false,false,false,true,true,false,false,false,false,false,false,true,true"
